<?xml version="1.0" encoding="UTF-8" standalone="no"?>
<!-- Created with Inkscape (http://www.inkscape.org/) -->

<svg
   xmlns:dc="http://purl.org/dc/elements/1.1/"
   xmlns:cc="http://creativecommons.org/ns#"
   xmlns:rdf="http://www.w3.org/1999/02/22-rdf-syntax-ns#"
   xmlns:svg="http://www.w3.org/2000/svg"
   xmlns="http://www.w3.org/2000/svg"
   xmlns:sodipodi="http://sodipodi.sourceforge.net/DTD/sodipodi-0.dtd"
   xmlns:inkscape="http://www.inkscape.org/namespaces/inkscape"
   width="210mm"
   height="297mm"
   viewBox="0 0 210 297"
   version="1.1"
   id="svg3694"
   inkscape:version="0.92.2 (5c3e80d, 2017-08-06)"
   sodipodi:docname="halloween_text.svg">
  <defs
     id="defs3688" />
  <sodipodi:namedview
     id="base"
     pagecolor="#ffffff"
     bordercolor="#666666"
     borderopacity="1.0"
     inkscape:pageopacity="0.0"
     inkscape:pageshadow="2"
     inkscape:zoom="0.98994949"
     inkscape:cx="471.35766"
     inkscape:cy="564.04061"
     inkscape:document-units="mm"
     inkscape:current-layer="layer1"
     showgrid="false"
     inkscape:window-width="1625"
     inkscape:window-height="995"
     inkscape:window-x="55"
     inkscape:window-y="27"
     inkscape:window-maximized="1" />
  <metadata
     id="metadata3691">
    <rdf:RDF>
      <cc:Work
         rdf:about="">
        <dc:format>image/svg+xml</dc:format>
        <dc:type
           rdf:resource="http://purl.org/dc/dcmitype/StillImage" />
        <dc:title></dc:title>
      </cc:Work>
    </rdf:RDF>
  </metadata>
  <g
     inkscape:label="Layer 1"
     inkscape:groupmode="layer"
     id="layer1">
    <path
       style="fill:#000000;stroke:none;stroke-width:0.64501882px;stroke-linecap:butt;stroke-linejoin:miter;stroke-opacity:1"
       d="M 344.91016 397.59766 C 342.05302 406.1691 318.47991 399.02653 307.76562 400.45508 C 297.05134 401.88366 304.91016 411.88281 304.91016 411.88281 C 313.89921 397.75718 321.72686 409.60226 320.625 417.33008 C 320.40963 417.1697 320.17775 417.01661 319.91016 416.88281 C 317.05302 425.45425 293.47992 418.31169 282.76562 419.74023 C 272.05135 421.16882 279.91016 431.16992 279.91016 431.16992 C 289.91015 415.45567 298.48159 431.88254 294.91016 439.02539 C 291.33873 446.16824 297.76562 461.8828 302.76562 466.88281 C 307.76563 471.88283 303.48047 479.73967 298.48047 484.02539 C 309.19476 481.16826 305.62305 499.02538 305.62305 504.02539 C 305.62305 509.0254 302.76701 517.5985 297.05273 521.16992 C 291.33844 524.74135 282.76589 526.16881 285.62305 529.74023 C 289.90876 522.59738 301.33705 531.88281 307.76562 531.88281 C 314.1942 531.88281 317.05302 541.88254 319.91016 549.02539 C 324.19588 533.3111 310.62388 529.7408 309.19531 525.45508 C 308.18127 522.41295 310.74689 514.74093 312.58789 508.47266 C 317.74443 505.53294 327.15718 512.59766 332.76562 512.59766 C 339.1942 512.59766 342.05302 522.59738 344.91016 529.74023 C 349.19588 514.02594 335.62388 510.45564 334.19531 506.16992 C 332.76673 501.8842 338.48102 488.31192 339.19531 482.59766 C 339.90959 476.88335 334.90876 447.59712 330.62305 441.88281 C 326.33733 436.16854 330.62305 415.4545 335.62305 409.74023 C 344.19448 409.74023 350.62445 400.45479 344.91016 397.59766 z M 166.71289 405.62891 C 166.71289 405.62891 155.96256 413.12188 147.49219 413.77344 C 139.02181 414.42503 129.24717 437.22962 141.62695 443.09375 C 154.00673 448.95784 167.03831 443.09424 163.12891 432.01758 C 159.2195 446.35208 139.67265 439.83678 140.32422 433.97266 C 140.97579 428.10857 145.53626 418.98517 154.6582 419.63672 C 161.17387 418.33358 170.2957 418.98544 170.94727 434.62305 C 171.59883 450.26069 170.94847 467.85314 167.03906 469.15625 C 168.3422 472.41409 175.50822 501.0827 174.20508 511.50781 C 172.90195 521.93288 172.90164 527.79725 162.47656 526.49414 C 152.05148 525.191 140.32497 529.10013 144.23438 514.76562 C 148.14378 500.43116 155.30937 499.12803 155.96094 508.25 C 156.61251 517.37193 155.96254 518.67578 150.75 518.67578 C 156.61411 524.53987 162.47775 521.2813 161.82617 514.76562 C 161.17461 508.24998 158.56841 490.00656 152.05273 497.17383 C 147.49176 491.96129 143.58203 489.35547 143.58203 489.35547 L 146.1875 499.12891 C 146.1875 499.12891 137.71757 506.29525 138.36914 514.76562 C 139.02071 523.236 134.46094 533.00977 134.46094 533.00977 L 141.62695 529.10156 C 141.62695 529.10156 145.53746 534.3125 150.75 534.3125 C 155.96254 534.3125 172.9023 536.2676 179.41797 533.00977 C 185.93364 529.75196 208.08799 522.58482 195.05664 513.46289 C 182.02529 504.34096 178.11561 490.00711 180.07031 482.83984 C 182.02502 475.67265 217.85973 469.80852 223.07227 482.83984 C 228.2848 495.8712 229.58832 511.50934 225.02734 519.32812 C 220.46637 527.14695 213.9519 536.26712 221.11914 544.08594 C 228.28638 551.90476 248.4843 562.98287 258.25781 551.90625 C 267.06748 541.92194 268.99297 528.23507 264.51562 523.24609 C 267.95225 522.17058 270.56377 521.09232 271.16602 520.72852 C 273.49372 519.32238 276.41642 514.69554 282.77344 519.43359 C 289.13045 524.17169 298.2941 515.93742 301.25977 509.53906 C 304.22544 503.14078 295.38201 493.23163 288.81836 497.35547 C 282.25473 501.47931 285.25462 506.97427 288.97656 503.93164 C 286.44791 500.5346 287.13961 497.7333 294.14648 501.44336 C 301.15335 505.15346 290.59554 515.02831 283.9668 512.99609 C 277.33808 510.96392 280.66023 498.3143 284.9375 493.82422 C 289.21476 489.3341 294.03527 479.43076 278.60352 465.71875 C 272.81661 460.57666 265.87297 459.66311 259.43555 460.95117 C 248.70653 463.09809 239.38011 471.36453 239.13281 476.37891 C 238.73711 484.40186 247.91053 489.09663 255.70312 490.42578 C 263.49569 491.75497 268.56264 480.08835 262.85547 474.32227 C 257.14831 468.55626 252.46875 477.125 252.46875 477.125 C 266.87818 476.52213 255.94683 484.82272 250.53516 484.2793 C 245.12349 483.73588 244.82661 478.18085 246.20898 472.58008 C 247.59135 466.97935 256.16992 465.92773 256.16992 465.92773 C 256.16992 465.92773 271.94322 469.42496 277.17773 473.09375 C 282.41222 476.7625 278.69089 479.80529 276.60547 484.24219 C 281.44994 482.26886 281.13785 486.7472 278.13086 494.91797 C 273.77094 502.95279 270.91716 500.06721 267.92773 498.53711 C 250.86834 487.41351 246.44174 495.80923 242.12695 512.4668 C 239.33809 511.56504 232.07006 508.58654 231.54297 501.73438 C 230.8914 493.264 226.98237 470.46058 233.49805 465.24805 C 228.93708 460.03551 222.42188 457.42898 222.42188 447.00391 C 222.42188 436.57884 219.16284 417.03046 226.33008 416.37891 C 233.49732 415.72735 246.52972 422.89448 241.96875 429.41016 C 237.40778 435.9258 227.63357 436.57893 231.54297 430.71484 C 228.28513 428.10856 221.76946 439.18359 231.54297 439.18359 C 241.31648 439.18359 247.83203 434.6231 247.83203 428.10742 C 247.83203 421.59174 247.83286 412.46995 241.96875 411.81836 C 236.10464 411.16681 228.9364 411.81876 219.81445 407.25781 C 210.69251 402.69683 220.46762 411.16716 214.60352 417.03125 C 208.73941 422.89538 207.4363 435.27458 211.3457 441.13867 C 215.25511 447.00276 215.9063 449.60969 209.39062 454.82227 C 202.87495 460.0348 175.50897 473.06572 178.11523 459.38281 C 180.72151 445.6999 187.57288 418.25344 179.41797 417.03125 C 171.46058 415.8387 166.71289 405.62891 166.71289 405.62891 z M 414.19531 421.79492 C 410.08818 421.70564 407.05218 423.31251 406.33789 428.3125 C 404.9093 438.31253 399.90903 444.02593 408.48047 449.74023 C 417.05191 455.4545 419.1953 454.02706 424.19531 451.16992 C 429.19533 448.31279 427.05223 435.45563 421.33789 436.16992 C 421.33789 436.16992 427.76561 447.59711 417.76562 446.88281 C 407.76564 446.16856 409.19506 428.3122 421.33789 430.45508 C 433.48079 432.59792 433.48021 444.02707 435.62305 451.16992 C 437.76593 458.31278 437.05134 461.1694 432.76562 465.45508 C 428.47991 469.7408 438.48049 465.4556 443.48047 476.16992 C 448.48052 486.8842 459.19507 504.73997 451.33789 506.88281 C 443.48074 509.02569 435.62389 505.45454 439.19531 499.74023 C 433.48104 501.16882 429.90957 512.59711 444.19531 511.88281 C 458.48098 511.16852 462.76589 508.31137 460.62305 501.88281 C 458.48017 495.45421 464.90849 488.31192 467.76562 497.59766 C 471.33705 490.4548 473.48042 485.45509 478.48047 495.45508 C 483.48048 505.4551 487.05136 514.74077 477.76562 520.45508 C 468.47989 526.16935 462.76645 509.74107 471.33789 513.3125 C 469.19505 509.02678 458.4813 513.31222 467.05273 520.45508 C 475.62421 527.59793 480.62307 524.74051 485.62305 517.59766 C 490.62306 510.45476 486.33789 498.31111 486.33789 494.02539 C 486.33789 492.96675 486.73331 490.81467 487.41016 488.1582 C 487.60628 488.88501 487.7912 489.67224 487.95312 490.58984 C 488.97549 496.38307 490.13906 511.12758 493.54688 515.89844 C 496.95461 520.66937 505.13272 521.009 512.28906 522.71289 C 519.44545 524.41651 514.67418 528.50631 518.08203 524.07617 C 521.48984 519.64607 528.64623 530.55127 534.43945 526.80273 C 540.23268 523.05416 539.89201 520.32758 543.64062 515.55664 C 547.38916 510.78574 551.47921 520.32783 551.13867 525.43945 C 557.61342 519.98703 551.47889 517.94262 546.36719 511.80859 C 541.25545 505.67457 538.18834 510.78566 537.16602 514.875 C 536.14369 518.96437 525.92014 522.03201 520.12695 520.32812 C 514.33369 518.62424 518.76336 514.87631 516.03711 517.94336 C 513.3109 521.01037 504.45131 516.92033 497.97656 512.49023 C 494.12836 509.85724 493.96731 503.10695 494.53711 497.19922 C 498.2775 501.90092 509.68006 505.6085 513.60352 506.44922 C 518.37441 507.47158 533.61654 504.2223 536.00195 501.49609 C 538.38744 498.76984 543.49924 494.68066 545.20312 486.50195 C 546.56185 487.58892 545.98213 490.83014 548.79688 490.54883 C 549.68331 496.60046 550.92459 503.24879 553.00977 506.16797 C 556.4175 510.9389 564.59561 511.27854 571.75195 512.98242 C 578.9083 514.68604 574.13707 518.77588 577.54492 514.3457 C 580.95273 509.91561 588.10912 520.82076 593.90234 517.07227 C 599.69557 513.32365 599.3549 510.59711 603.10352 505.82617 C 606.11148 501.99785 609.33264 507.38528 610.31445 512.30469 C 609.39463 514.67764 609.24633 516.36765 612.41016 516.16992 C 618.12446 515.81276 621.69504 511.16881 626.33789 514.74023 C 626.69506 512.59736 628.83792 511.52649 633.83789 515.45508 C 634.55218 511.52649 631.69531 509.38308 631.69531 504.74023 C 631.69531 500.09735 628.48076 489.74083 631.33789 487.95508 C 630.26647 484.74082 633.62584 485.05396 637.05273 479.02539 C 641.58295 471.05595 666.85895 459.46963 657.05273 491.16992 C 647.40987 498.31278 646.33733 502.5968 650.62305 506.52539 C 654.90877 510.45394 660.26672 519.0254 664.19531 516.52539 C 668.12387 514.02538 681.69422 512.23996 675.26562 504.38281 C 668.83706 496.52567 665.98102 498.6688 666.69531 504.74023 C 668.48103 501.52594 673.48103 502.95422 671.69531 506.88281 C 669.9096 510.8114 669.90847 509.74079 665.26562 510.45508 C 660.62278 511.16937 659.19558 511.88393 657.05273 505.8125 C 654.90986 499.74107 656.33792 494.38336 661.33789 495.09766 C 661.33789 492.95478 656.33817 490.45508 661.69531 487.95508 C 667.05245 485.45511 669.19421 481.16824 667.76562 476.52539 C 666.33704 471.88254 657.05275 451.52544 649.55273 461.52539 C 637.40987 463.31114 638.48103 471.52706 634.19531 468.66992 C 629.90959 465.81279 631.33841 465.45425 629.55273 459.38281 C 627.76702 453.31138 619.19419 444.02538 610.26562 446.52539 C 613.83705 449.02536 612.05164 448.31197 608.12305 452.59766 C 604.19449 456.88338 603.48131 458.31194 604.55273 462.59766 C 605.62419 466.88338 607.7662 474.02624 613.48047 472.59766 C 619.19477 471.16911 622.05189 472.95454 620.98047 467.24023 C 619.90905 461.52597 618.83731 461.52539 615.62305 461.52539 C 615.62305 461.52539 620.26564 467.95482 615.26562 467.59766 C 610.26561 467.24049 608.83844 464.02592 609.55273 459.74023 C 610.26703 455.45451 614.90959 452.24107 619.19531 455.8125 C 623.48103 459.38393 628.8379 469.73966 626.33789 476.52539 C 623.83788 483.31108 620.62305 488.66992 620.62305 488.66992 C 620.62305 488.66992 626.69417 482.9551 625.26562 490.45508 C 623.83704 497.9551 626.33761 510.0971 620.98047 511.88281 C 615.62333 513.66853 612.76676 513.66853 614.19531 509.38281 C 615.6239 505.09709 619.55299 504.3831 619.91016 507.24023 C 619.91016 500.81167 613.83705 500.81249 612.76562 505.8125 C 612.58487 506.65601 612.27938 507.51365 611.94531 508.36523 C 610.456 506.63083 608.04839 504.74007 605.83008 502.07812 C 600.71834 495.94407 597.65123 501.05523 596.62891 505.14453 C 595.60658 509.2339 585.38303 512.30154 579.58984 510.59766 C 573.79658 508.89377 578.22625 505.14584 575.5 508.21289 C 572.77379 511.2799 563.91424 507.18983 557.43945 502.75977 C 553.59125 500.12675 553.43021 493.37649 554 487.46875 C 557.74008 492.17063 569.14287 495.87801 573.06641 496.71875 C 577.8373 497.74111 593.07939 494.49184 595.46484 491.76562 C 597.85029 489.03941 602.96213 484.95019 604.66602 476.77148 C 606.36994 478.13461 605.00664 482.9049 611.14062 479.83789 C 608.41445 481.20098 605.34727 469.61373 602.62109 465.18359 C 599.89488 460.7535 590.35334 457.34582 581.15234 458.70898 C 582.85619 457.68662 584.55957 451.89314 577.0625 448.14453 C 569.56535 444.39603 568.20348 449.84885 570.92969 451.55273 C 572.97437 446.78187 578.0851 449.50836 579.10742 454.2793 C 580.12975 459.05019 566.84021 459.39101 561.72852 462.11719 C 556.61686 464.8434 554.23084 466.20729 549.80078 476.08984 C 549.80078 473.48013 546.36504 467.16079 542.7832 474.39453 C 539.65541 470.22459 530.5242 467.13055 521.68945 468.43945 C 522.86264 467.7355 524.03549 464.77041 522.20508 461.76758 C 525.84448 458.73907 528.36613 454.60098 529.19531 450.45508 C 530.62386 443.31222 524.90933 432.59792 516.33789 430.45508 C 507.76641 428.3122 498.48018 423.31195 495.62305 437.59766 C 492.76588 451.88336 491.3379 461.16856 486.33789 461.88281 C 485.6236 466.16853 490.62417 474.74081 482.05273 480.45508 C 473.48126 486.16938 464.90988 487.95536 472.05273 478.3125 C 473.0006 475.46886 465.22545 467.74295 470.63086 461.88672 C 483.1245 448.35113 462.16185 446.21027 464.19531 432.59766 C 455.26682 442.59768 471.33845 451.16854 467.05273 456.88281 C 462.76701 462.59712 462.76703 476.16995 462.05273 481.16992 C 456.33847 483.3128 451.33815 474.02595 449.19531 469.74023 C 447.05243 465.45451 448.48023 461.16967 455.62305 458.3125 C 448.48023 457.59824 447.05267 459.74136 442.05273 451.16992 C 437.05268 442.59852 438.48049 429.0265 428.48047 425.45508 C 423.48049 423.66936 418.30245 421.88421 414.19531 421.79492 z M 318.91406 425.86328 C 319.26133 433.60657 323.92518 443.7572 327.76562 447.59766 C 332.76563 452.59767 328.48047 460.45451 323.48047 464.74023 C 334.19476 461.8831 330.62305 479.74022 330.62305 484.74023 C 330.62305 489.74025 327.76701 498.31139 322.05273 501.88281 C 319.23984 503.64087 315.74353 504.88056 313.25 506.11133 C 313.68785 504.50107 314.05418 503.01184 314.19531 501.88281 C 314.90959 496.16851 309.90876 466.88423 305.62305 461.16992 C 301.33733 455.45565 305.62305 434.73966 310.62305 429.02539 C 313.88033 429.02539 316.82448 427.68284 318.91406 425.86328 z M 513.32617 435.74805 C 514.62808 435.8057 516.09151 436.36998 517.76562 437.59766 C 528.47991 445.4548 526.33731 448.31192 520.62305 457.59766 C 520.29074 458.13766 519.94628 458.63039 519.59375 459.08398 C 519.01068 458.66626 518.36636 458.25741 517.60156 457.875 C 512.63424 455.39138 510.37185 456.94921 510.19531 458.77734 C 510.04319 456.60427 510.74917 453.57148 512.76562 449.74023 C 507.76557 458.31164 502.05134 461.8842 512.76562 466.16992 C 515.22765 465.75959 517.50615 464.86626 519.54688 463.64844 C 519.57882 463.7695 519.61798 463.88585 519.64453 464.00977 C 520.66689 468.78063 507.37725 469.12145 502.26562 471.84766 C 497.15397 474.57387 494.76795 475.93776 490.33789 485.82031 C 490.33789 484.86969 489.87567 483.42932 489.12305 482.32227 C 491.52484 475.00123 495.12112 467.00977 498.48047 466.16992 C 498.48047 462.5985 493.48101 460.45454 499.19531 454.74023 C 504.01669 449.91882 506.29587 435.4367 513.32617 435.74805 z M 514.68359 458.79102 C 515.87665 458.82146 517.11179 459.55822 518.07617 460.73242 C 514.81445 463.7008 511.34613 463.36039 510.41602 460.08789 C 510.63058 460.55601 510.98125 460.97974 511.4668 461.2832 C 512.23357 459.49412 513.43162 458.75907 514.68359 458.79102 z M 580.53125 462.70508 C 588.3678 462.86348 594.44199 465.69457 599.21289 471.6582 C 604.66531 478.47375 595.46533 489.3791 591.7168 490.74219 C 569.17278 495.47884 564.698 489.63841 561.31445 485.66602 C 555.52119 483.62137 566.15756 480.51983 568.54297 475.4082 C 570.92842 470.29677 580.81113 473.36248 585.58203 475.06641 C 590.35293 476.77029 584.90191 484.60865 581.49414 486.3125 C 578.08637 488.01642 573.31473 484.60982 575.35938 480.17969 C 577.40406 475.74982 580.8125 479.83789 580.8125 479.83789 C 577.06396 474.38547 575.6999 476.08992 573.31445 476.77148 C 570.92897 477.45305 569.90752 480.519 572.29297 484.26758 C 574.67846 488.01615 579.7885 488.69715 582.85547 488.01562 C 585.92248 487.33406 590.35275 483.24654 592.05664 478.81641 C 593.76053 474.38631 588.99076 471.99965 585.24219 469.27344 C 581.49365 466.54723 570.92914 468.59199 566.83984 469.95508 C 563.96096 470.91471 558.35417 474.59601 555.16211 478.83008 C 555.18847 478.61515 555.23946 478.30825 555.25391 478.13477 C 555.59471 474.04543 567.52067 463.48035 577.0625 462.79883 C 578.25522 462.71363 579.41174 462.68245 580.53125 462.70508 z M 521.06836 472.43555 C 528.90491 472.59395 534.98105 475.42507 539.75195 481.38867 C 545.20438 488.20426 536.0024 499.10953 532.25391 500.47266 C 509.70986 505.20927 505.23507 499.36888 501.85156 495.39648 C 496.05834 493.3518 506.69666 490.25033 509.08203 485.13867 C 511.46748 480.02724 521.34821 483.09295 526.11914 484.79688 C 530.89004 486.50076 525.43906 494.33912 522.03125 496.04297 C 518.62351 497.74689 513.85184 494.33838 515.89648 489.9082 C 517.94117 485.47833 521.34961 489.56836 521.34961 489.56836 C 517.60111 484.1159 516.23701 485.82039 513.85156 486.50195 C 511.46604 487.18352 510.44459 490.24947 512.83008 493.99805 C 515.21556 497.74658 520.32756 498.42762 523.39453 497.74609 C 526.46154 497.06453 530.89182 492.97506 532.5957 488.54492 C 534.29959 484.11479 529.52787 481.73008 525.7793 479.00391 C 522.03072 476.2777 511.46629 478.32246 507.37695 479.68555 C 504.49768 480.64533 498.89102 484.32761 495.69922 488.5625 C 495.72575 488.3464 495.7765 488.03756 495.79102 487.86328 C 496.13182 483.77391 508.05969 473.21082 517.60156 472.5293 C 518.79428 472.4441 519.94885 472.41292 521.06836 472.43555 z M 543.96484 474.43945 C 545.49834 474.2797 546.64927 476.51449 547.41602 480.85938 C 547.64674 482.16679 547.88893 483.96911 548.1582 485.9707 C 546.4661 482.50609 544.75345 477.5064 543.1582 474.91406 C 543.13167 474.87095 543.09422 474.83003 543.06641 474.78711 C 543.37854 474.58935 543.6793 474.4692 543.96484 474.43945 z M 261.51758 500.58789 C 261.89834 500.58491 262.27948 500.59035 262.66211 500.60742 C 266.59216 500.78279 265.29726 506.61434 264.62695 508.9375 C 265.18054 507.38687 266.62395 504.44269 269.90039 503.38477 C 274.41993 501.92545 274.20116 506.82188 273.23828 512.32812 C 272.52082 516.43083 261.83348 518.61787 254.72852 518.39258 C 252.76869 517.70784 250.73984 517.15558 248.83203 516.96484 C 245.68407 513.77065 252.82617 501.94141 252.82617 501.94141 C 252.82617 501.94141 253.52006 501.72474 254.64648 501.46289 C 256.28918 501.08112 258.85222 500.60874 261.51758 500.58789 z M 240.8457 512.49414 C 241.35567 512.49414 241.72815 512.5399 242.0957 512.58984 C 241.84684 513.55298 241.59838 514.53103 241.34766 515.54688 C 240.84439 517.5859 240.77862 519.25781 241.06445 520.61719 C 240.04752 523.0121 239.94916 526.73846 241.31641 532.35938 C 242.22636 529.62952 244.56772 527.1413 247.2832 525.63672 C 249.91708 526.0641 253.08247 525.83876 256.24805 525.29102 C 257.95651 526.50113 259.21605 528.74219 259.56055 532.35938 C 258.25741 542.13289 250.43875 547.99649 240.01367 543.43555 C 229.58859 538.87456 223.07262 538.22313 228.28516 523.88867 C 231.86878 514.0337 237.60854 512.49414 240.8457 512.49414 z "
       transform="scale(0.26458333)"
       id="path3023" />
  </g>
</svg>
